rake aborted!
Don't know how to build task 'resque:work'
/Users/snailwalker/.rvm/gems/ruby-2.2.2/bin/ruby_executable_hooks:15:in `eval'
/Users/snailwalker/.rvm/gems/ruby-2.2.2/bin/ruby_executable_hooks:15:in `<main>'
(See full trace by running task with --trace)
